<svg xmlns="http://www.w3.org/2000/svg" width="142.587" height="140.985" viewBox="0 0 142.587 140.985">
  <path id="Caminho_25791" data-name="Caminho 25791" d="M552.159,286.166l.026-.035.035.033c9.4-.435,18.438-3.782,26.675-8.458-.143-.083.59-.394.59-.338,2.1-1.212,4.142-2.506,6.125-3.861a143.824,143.824,0,0,0,32.512-30.892c8.457-10.955,18.029-25.336,14.528-39.913-1.654-6.884-6.379-12.332-11.511-16.965-6.07-5.478-12.5-10.589-18.76-15.844-6.013-5.046-11.922-10.281-18.315-14.849-5.736-4.1-12.081-7.72-19.044-9.188a32.061,32.061,0,0,0-20.276,2.508c-6.55,3.034-12.207,7.749-17.458,12.63-10.46,9.72-20.842,20.352-27.34,33.22-.975,1.931-2.54,4.365-3.314,6.384a51.454,51.454,0,0,0-5.725,27.106c.814,13.8,7.306,26.7,16.473,36.849,9.528,10.551,22.528,19.264,36.833,21.255C544.715,285.877,550.31,286.249,552.159,286.166Z" transform="translate(-490.804 -145.193)" fill="#74b959"/>
</svg>
